Data for good for Vietnam
…
Note that we remove the variables that we dont need here (z_score, n_baseline and n_difference) and get rid off the records with less then 10 cases (i.e.n_crisis == NA). Lets now remove X from communes names (takes less than 10):

mvts %<>% mutate_at(vars(ends_with("name")), sub, pattern = "X *", replacement = "")

Lets have a look:

mvts

## # A tibble: 4,225,309 x 8
##    date_time           start_name end_name      start_lon start_lat end_lon end_lat n_crisis
##    <dttm>              <chr>      <chr>             <dbl>     <dbl>   <dbl>   <dbl>    <int>
##  1 2019-12-16 07:00:00 A Phon     A Phon             104.      14.5    104.    14.5      386
##  2 2019-12-16 07:00:00 A Phon     Charat             104.      14.5    104.    14.4       25
##  3 2019-12-16 07:00:00 A Phon     Nok Mueang         104.      14.5    103.    14.9       11
##  4 2019-12-16 07:00:00 A Phon     Sadao              104.      14.5    104.    14.6      126
##  5 2019-12-16 07:00:00 A Phon     Sangkha            104.      14.5    104.    14.6       13
##  6 2019-12-16 07:00:00 Akat       Akat               104.      17.6    104.    17.6     1292
##  7 2019-12-16 07:00:00 Akat       Lao Phatthana      104.      17.6    104.    17.6       12
##  8 2019-12-16 07:00:00 Akat       Na Duea            104.      17.6    104.    17.6       17
##  9 2019-12-16 07:00:00 Akat       Na Wa              104.      17.5    104.    17.5       57
## 10 2019-12-16 07:00:00 Akat       Phon Phaeng        104.      17.6    104.    17.5       17
## #  with 4,225,299 more rows
…
end_sel <- mvts %>% 
  st_as_sf(coords = c("end_lon", "end_lat"), crs = 4326) %>% 
  st_intersects(vn0) %>% 
  map_int(length)

And now getting rid off all the records that do not have at least start or end inside Vietnam:

mvts <- mvts[start_sel + end_sel > 0, ]

Which gives:

mvts

## # A tibble: 2,806,452 x 8
##    date_time           start_name    end_name          start_lon start_lat end_lon end_lat n_crisis
##    <dttm>              <chr>         <chr>                 <dbl>     <dbl>   <dbl>   <dbl>    <int>
##  1 2019-12-16 07:00:00 Malipo County Malipo County          105.     23.2     105.   23.2       343
##  2 2019-12-16 07:00:00 Phng 10     Phng 10              106.      9.58    106.    9.58    11492
##  3 2019-12-16 07:00:00 Phng 10     Phng 7               106.      9.58    107.   10.8        41
##  4 2019-12-16 07:00:00 Phng 10     Phng Hng Thnh      106.      9.58    106.   10.0       108
##  5 2019-12-16 07:00:00 Phng 10     An Thnh Ty           106.      9.58    106.    9.67       34
##  6 2019-12-16 07:00:00 Phng 10     Ha T 2               106.      9.58    106.    9.41       18
##  7 2019-12-16 07:00:00 Phng 10     Hng Ph               106.      9.58    106.    9.67       33
##  8 2019-12-16 07:00:00 Phng 10     K Thnh               106.      9.58    106.    9.75       31
##  9 2019-12-16 07:00:00 Phng 10     Liu T                106.      9.58    106.    9.49       19
## 10 2019-12-16 07:00:00 Phng 10     Long Ph               106.      9.58    106.    9.58       38
## #  with 2,806,442 more rows
…
